^D:\SIEMENS\TEMA2\LEVEL3CM\OUTPUT\CMAKEFILES\3.7.2\COMPILERIDC\CMAKECCOMPILERID.C
C:\WINDOWS\GLOBALIZATION\SORTING\SORTDEFAULT.NLS
E:\VISUALSTUDIO2015\VC\BIN\1033\CLUI.DLL
C:\WINDOWS\SYSTEM32\TZRES.DLL
